Trees for Dis3L2/Ssd1 homologs
…
Get tips in order from tree

Dis3L2_features_df_treeIQML_order <- 
  ggt_taxa_IQML$data %>%
  filter(isTip) %>%
  arrange(y)
Dis3L2_features_df_treeIQML_order

## # A tibble: 99 x 23
##    parent  node branch.length label isTip     x     y branch angle Organism
##     <int> <int>         <dbl> <chr> <lgl> <dbl> <dbl>  <dbl> <dbl> <chr>   
##  1    101     1         0.180 NP_0 TRUE   3.19     1   3.10  3.64 Sacchar
##  2    101     2         0.192 XP_4 TRUE   3.20     2   3.11  7.27 Candida
##  3    103     3         0.238 NP_9 TRUE   3.19     3   3.07 10.9  Eremoth
##  4    103     4         0.265 XP_4 TRUE   3.22     4   3.09 14.5  Kluyver
##  5    107     5         0.148 XP_7 TRUE   3.03     5   2.96 18.2  Candida
##  6    107     6         0.153 XP_4 TRUE   3.04     6   2.96 21.8  Debaryo
##  7    106     7         0.252 XP_0 TRUE   3.07     7   2.94 25.5  Candida
##  8    108     8         0.282 ODV9 TRUE   2.99     8   2.85 29.1  Pachyso
##  9    108     9         0.392 XP_0 TRUE   3.10     9   2.91 32.7  Komagat
## 10    109    10         0.508 XP_5 TRUE   2.80    10   2.54 36.4  Yarrowi
## #  with 89 more rows, and 13 more variables: Info <chr>, Clade <fct>,
## #   Extension <chr>, activesite <lgl>, cbk1cons_count <int>,
## #   cbk1dock_count <int>, cdk1cons_count <int>, cdk1consdock_count <int>,
## #   cdk1cons_Ntcount <int>, cdk1consdock_Ntcount <int>, NLS_bi_count <int>,
## #   NLS_mono_count <int>, NLS_Ssd1like <lgl>
…
ggsave(filename = here::here("figure","figure2_taxa_IQML_featureheatmaps.svg"),
       plot = plot_taxa_IQML_featureheatmaps,
       width = 8, height = 8)

Reorder the list of sequences by tip order

Dis3L2_features_df_treeIQML_order

## # A tibble: 99 x 23
##    parent  node branch.length label isTip     x     y branch angle Organism
##     <int> <int>         <dbl> <chr> <lgl> <dbl> <dbl>  <dbl> <dbl> <chr>   
##  1    101     1         0.180 NP_0 TRUE   3.19     1   3.10  3.64 Sacchar
##  2    101     2         0.192 XP_4 TRUE   3.20     2   3.11  7.27 Candida
##  3    103     3         0.238 NP_9 TRUE   3.19     3   3.07 10.9  Eremoth
##  4    103     4         0.265 XP_4 TRUE   3.22     4   3.09 14.5  Kluyver
##  5    107     5         0.148 XP_7 TRUE   3.03     5   2.96 18.2  Candida
##  6    107     6         0.153 XP_4 TRUE   3.04     6   2.96 21.8  Debaryo
##  7    106     7         0.252 XP_0 TRUE   3.07     7   2.94 25.5  Candida
##  8    108     8         0.282 ODV9 TRUE   2.99     8   2.85 29.1  Pachyso
##  9    108     9         0.392 XP_0 TRUE   3.10     9   2.91 32.7  Komagat
## 10    109    10         0.508 XP_5 TRUE   2.80    10   2.54 36.4  Yarrowi
## #  with 89 more rows, and 13 more variables: Info <chr>, Clade <fct>,
## #   Extension <chr>, activesite <lgl>, cbk1cons_count <int>,
## #   cbk1dock_count <int>, cdk1cons_count <int>, cdk1consdock_count <int>,
## #   cdk1cons_Ntcount <int>, cdk1consdock_Ntcount <int>, NLS_bi_count <int>,
## #   NLS_mono_count <int>, NLS_Ssd1like <lgl>
…
