Trees for Ssd1 and Dis3-like eukaryotic proteins
…
Get tree order

This orders the data underlying the tree in the same order as the tips are displayed in the phylogenetic tree. It uses a trick that ggtree::ggtree creates an internal data frame that includes the y-coordinate used to display each node, so that dplyr::arrange(y) arranges the data frame in display order. We then use dplyr::pull to extract labels/sequence ids, which we will later use to put sequences in the same order.

tree_IQML_amoebaroot_data_order <- 
  groupClade(tree_IQML_amoebaroot,Dis3_clades) %>%
  ggtree %>% 
  .$data %>%
  filter(isTip) %>%
  arrange(y)
tree_IQML_amoebaroot_data_order

## # A tibble: 223 x 10
##    parent  node branch.length label         group isTip     x     y branch angle
##     <int> <int>         <dbl> <chr>         <fct> <lgl> <dbl> <dbl>  <dbl> <dbl>
##  1    419   191        0.130  XP_003293188 aRNI TRUE  0.387     1  0.321  1.61
##  2    419   192        0.134  XP_638051.1   aRNI TRUE  0.390     2  0.323  3.23
##  3    420   193        0.272  XP_020430095 aRNI TRUE  0.505     3  0.369  4.84
##  4    420   194        0.431  XP_004351761 aRNI TRUE  0.664     4  0.448  6.46
##  5    421   195        1.48   NP_612012.1   Dis3 TRUE  4.02      5  3.28   8.07
##  6    421   196        1.96   XP_030838165 Dis3 TRUE  4.50      6  3.52   9.69
##  7    294    70        1.27   KXN68223.1    Dis3 TRUE  4.10      7  3.46  11.3 
##  8    295    66        0.175  ORX43377.1    Dis3 TRUE  4.25      8  4.17  12.9 
##  9    296    69        0.205  ORX85520.1    Dis3 TRUE  4.36      9  4.25  14.5 
## 10    297    67        0.0616 ORY24922.1    Dis3 TRUE  4.32     10  4.29  16.1 
## #  with 213 more rows
…
